@startuml
interface List {
{abstract} +add(index : int, element : E)
{abstract} +remove(index : int) : E
}
class ArrayList {
+add(index : int, element : E)
+remove(index : int) : E
}
class LinkedList {
+add(index : int, element : E)
+remove(index : int) : E
}
List <|.. ArrayList
List <|.. LinkedList
@enduml
